<?xml version="1.0" encoding="UTF-8"?>
<svg class="ml-2 -mr-0.5 h-4 w-4" fill="currentColor" viewBox="0 0 20 20" xmlns="http://www.w3.org/2000/svg">
<path d="M5.293 7.293a1 1 0 011.414 0L10 10.586l3.293-3.293a1 1 0 111.414 1.414l-4 4a1 1 0 01-1.414 0l-4-4a1 1 0 010-1.414z" clip-rule="evenodd" fill-rule="evenodd" fill="#3e3e88"/>
</svg>
