<?xml version="1.0" encoding="UTF-8" standalone="no"?>
<svg
   inkscape:version="1.1.1 (3bf5ae0d25, 2021-09-20)"
   height="805.01251"
   width="806.37128"
   sodipodi:docname="kalendorius.svg"
   id="svg30"
   xml:space="preserve"
   enable-background="new 0 0 1000 1000"
   viewBox="0 0 806.37127 805.01251"
   y="0px"
   x="0px"
   version="1.1"
   xmlns:inkscape="http://www.inkscape.org/namespaces/inkscape"
   xmlns:sodipodi="http://sodipodi.sourceforge.net/DTD/sodipodi-0.dtd"
   xmlns:xlink="http://www.w3.org/1999/xlink"
   xmlns="http://www.w3.org/2000/svg"
   xmlns:svg="http://www.w3.org/2000/svg"
   xmlns:rdf="http://www.w3.org/1999/02/22-rdf-syntax-ns#"
   xmlns:cc="http://creativecommons.org/ns#"
   xmlns:dc="http://purl.org/dc/elements/1.1/"><defs
   id="defs34"><linearGradient
     id="linearGradient941"
     inkscape:collect="always"><stop
       id="stop937"
       offset="0"
       style="stop-color:#b3b3b3;stop-opacity:1" /><stop
       id="stop939"
       offset="1"
       style="stop-color:#f9f9f9;stop-opacity:1" /></linearGradient><linearGradient
     gradientUnits="userSpaceOnUse"
     y2="52.649235"
     x2="367.86966"
     y1="52.649235"
     x1="313.02213"
     id="linearGradient943"
     xlink:href="#linearGradient941"
     inkscape:collect="always"
     gradientTransform="translate(2.7225909e-5)" /><linearGradient
     gradientUnits="userSpaceOnUse"
     y2="52.572266"
     x2="183.21194"
     y1="52.572266"
     x1="128.3644"
     id="linearGradient1011"
     xlink:href="#linearGradient941"
     inkscape:collect="always"
     gradientTransform="translate(2.7225909e-5)" /><linearGradient
     gradientUnits="userSpaceOnUse"
     y2="52.572266"
     x2="552.35333"
     y1="52.572266"
     x1="497.50577"
     id="linearGradient1019"
     xlink:href="#linearGradient941"
     inkscape:collect="always"
     gradientTransform="translate(2.7225909e-5)" /><linearGradient
     gradientTransform="translate(832.50503)"
     y2="52.572266"
     x2="552.35333"
     y1="52.572266"
     x1="497.50577"
     gradientUnits="userSpaceOnUse"
     id="linearGradient1055"
     xlink:href="#linearGradient941"
     inkscape:collect="always" /><linearGradient
     gradientTransform="translate(832.50503)"
     y2="52.649235"
     x2="367.86966"
     y1="52.649235"
     x1="313.02213"
     gradientUnits="userSpaceOnUse"
     id="linearGradient1057"
     xlink:href="#linearGradient941"
     inkscape:collect="always" /><linearGradient
     gradientTransform="translate(832.50503)"
     y2="52.572266"
     x2="183.21194"
     y1="52.572266"
     x1="128.3644"
     gradientUnits="userSpaceOnUse"
     id="linearGradient1059"
     xlink:href="#linearGradient941"
     inkscape:collect="always" /><filter
     height="1.1063586"
     y="-0.053179307"
     width="1.1049998"
     x="-0.052499878"
     id="filter1231"
     style="color-interpolation-filters:sRGB"
     inkscape:collect="always"><feGaussianBlur
       id="feGaussianBlur1233"
       stdDeviation="14.874453"
       inkscape:collect="always" /></filter><filter
     height="1.3818368"
     y="-0.19091838"
     width="1.3769584"
     x="-0.18847917"
     id="filter1381"
     style="color-interpolation-filters:sRGB"
     inkscape:collect="always"><feGaussianBlur
       id="feGaussianBlur1383"
       stdDeviation="38.52614"
       inkscape:collect="always" /></filter><linearGradient
     inkscape:collect="always"
     xlink:href="#linearGradient941"
     id="linearGradient942"
     x1="254.83051"
     y1="57.834213"
     x2="308.53418"
     y2="57.834213"
     gradientUnits="userSpaceOnUse" /><linearGradient
     inkscape:collect="always"
     xlink:href="#linearGradient941"
     id="linearGradient968"
     x1="439.48834"
     y1="57.911182"
     x2="493.19202"
     y2="57.911182"
     gradientUnits="userSpaceOnUse" /><linearGradient
     inkscape:collect="always"
     xlink:href="#linearGradient941"
     id="linearGradient994"
     x1="623.97198"
     y1="57.834213"
     x2="677.67566"
     y2="57.834213"
     gradientUnits="userSpaceOnUse" /></defs><sodipodi:namedview
   inkscape:snap-global="false"
   inkscape:snap-center="true"
   inkscape:snap-object-midpoints="true"
   inkscape:snap-smooth-nodes="true"
   inkscape:snap-intersection-paths="true"
   inkscape:object-paths="true"
   inkscape:document-rotation="0"
   inkscape:current-layer="svg30"
   inkscape:window-maximized="1"
   inkscape:window-y="-9"
   inkscape:window-x="-9"
   inkscape:window-height="1001"
   inkscape:window-width="1920"
   inkscape:cy="503.69458"
   inkscape:cx="176.10837"
   inkscape:zoom="0.406"
   fit-margin-bottom="0"
   fit-margin-right="0"
   fit-margin-left="0"
   fit-margin-top="0"
   inkscape:guide-bbox="true"
   showguides="true"
   showgrid="false"
   inkscape:pagecheckerboard="1"
   inkscape:pageopacity="0"
   inkscape:pageshadow="0"
   borderopacity="1"
   bordercolor="#111111"
   pagecolor="#ffffff"
   id="namedview32"><sodipodi:guide
     id="guide1170"
     orientation="0,-1"
     position="-1514.9407,697.70327" /><sodipodi:guide
     id="guide1528"
     orientation="1,0"
     position="-1345.5128,675.90366" /><sodipodi:guide
     id="guide1866"
     orientation="1,0"
     position="-1116.1993,562.92546" /><sodipodi:guide
     id="guide2002"
     orientation="1,0"
     position="-1269.1722,603.4764" /><sodipodi:guide
     id="guide29"
     orientation="0,-1"
     position="-1575.1182,562.92552" /><sodipodi:guide
     id="guide31"
     orientation="1,0"
     position="-1575.1182,562.92552" /><sodipodi:guide
     id="guide33"
     orientation="1,0"
     position="-1422.1452,562.9254" /><sodipodi:guide
     id="guide35"
     orientation="1,0"
     position="-1269.1722,562.92552" /><sodipodi:guide
     id="guide37"
     orientation="0,-1"
     position="-1574.9643,421.98959" /><sodipodi:guide
     id="guide39"
     orientation="0,-1"
     position="-1574.8104,281.05362" /><sodipodi:guide
     id="guide909"
     orientation="1,0"
     position="-1530.1705,755.53749" /><sodipodi:guide
     id="guide911"
     orientation="1,0"
     position="-1161.0291,748.68946" /></sodipodi:namedview>
<metadata
   id="metadata2"> Svg Vector Icons : http://www.onlinewebfonts.com/icon <rdf:RDF><cc:Work
     rdf:about=""><dc:format>image/svg+xml</dc:format><dc:type
       rdf:resource="http://purl.org/dc/dcmitype/StillImage" /></cc:Work></rdf:RDF></metadata>

<g
   id="g1387"
   style="fill:#ececec"
   transform="translate(-944.14778,-683.5498)"><path
     id="path1385"
     style="fill:#ececec;fill-opacity:1;stroke:none;stroke-width:2.044;stroke-linecap:round;stroke-linejoin:round;stroke-miterlimit:4;stroke-dasharray:none;stroke-opacity:1;filter:url(#filter1231)"
     d="m 155.55921,781.57456 c -14.7494,0 -26.625,11.87365 -26.625,26.62304 v 31.21094 H 74.817019 c -41.172528,0 -74.318359,33.14584 -74.318359,74.31836 v 464.8184 c 0,41.1725 33.145831,74.3183 74.318359,74.3183 H 606.15686 c 41.17253,0 74.31836,-33.1458 74.31836,-74.3183 V 913.7269 c 0,-41.17252 -33.14583,-74.31836 -74.31836,-74.31836 H 551.77991 V 808.1976 c 0,-14.74939 -11.87365,-26.62304 -26.62305,-26.62304 h -0.45703 c -14.7494,0 -26.62305,11.87365 -26.62305,26.62304 v 31.21094 H 367.29554 v -31.13281 c 0,-14.7494 -11.87365,-26.625 -26.62305,-26.625 h -0.45703 c -14.7494,0 -26.62305,11.8756 -26.62305,26.625 v 31.13281 H 182.63928 V 808.1976 c 10e-6,-14.74939 -11.87559,-26.62304 -26.625,-26.62304 z" /></g><g
   transform="matrix(0.7817576,0,0,0.7817576,-868.33172,-439.72523)"
   style="fill:#b3b3b3;filter:url(#filter1381)"
   id="g1391"><path
     d="m 155.55921,781.57456 c -14.7494,0 -26.625,11.87365 -26.625,26.62304 v 31.21094 H 74.817019 c -41.172528,0 -74.318359,33.14584 -74.318359,74.31836 v 464.8184 c 0,41.1725 33.145831,74.3183 74.318359,74.3183 H 606.15686 c 41.17253,0 74.31836,-33.1458 74.31836,-74.3183 V 913.7269 c 0,-41.17252 -33.14583,-74.31836 -74.31836,-74.31836 H 551.77991 V 808.1976 c 0,-14.74939 -11.87365,-26.62304 -26.62305,-26.62304 h -0.45703 c -14.7494,0 -26.62305,11.87365 -26.62305,26.62304 v 31.21094 H 367.29554 v -31.13281 c 0,-14.7494 -11.87365,-26.625 -26.62305,-26.625 h -0.45703 c -14.7494,0 -26.62305,11.8756 -26.62305,26.625 v 31.13281 H 182.63928 V 808.1976 c 10e-6,-14.74939 -11.87559,-26.62304 -26.625,-26.62304 z"
     style="fill:#b3b3b3;fill-opacity:1;stroke:none;stroke-width:2.044;stroke-linecap:round;stroke-linejoin:round;stroke-miterlimit:4;stroke-dasharray:none;stroke-opacity:1;filter:url(#filter1231)"
     id="path1389" /></g><rect
   y="316.83829"
   x="-2032.0178"
   height="66.184616"
   width="66.184616"
   id="rect76"
   style="fill:#a694b9;stroke:#000000" /><rect
   style="fill:#555596;stroke:#000000"
   id="rect78"
   width="66.184616"
   height="66.184616"
   x="-2032.0178"
   y="242.08699" /><rect
   y="404.05972"
   x="-2032.0178"
   height="66.184616"
   width="66.184616"
   id="rect80"
   style="fill:#ddd6f3;stroke:#000000" /><path
   style="fill:none;stroke:#000000;stroke-width:1;stroke-linecap:butt;stroke-linejoin:miter;stroke-opacity:1"
   d="m -673.69017,57.911181 h 321.9451"
   id="path1021" /><rect
   style="fill:#ffffff;stroke:#000000;stroke-width:3;stroke-miterlimit:4;stroke-dasharray:none"
   id="rect1023"
   width="679.97717"
   height="613.45526"
   x="-852.95367"
   y="57.83379"
   ry="74.318642"
   rx="74.318642" /><rect
   style="fill:#ffffff;stroke:#000000;stroke-width:1.5;stroke-linecap:round;stroke-linejoin:round;stroke-miterlimit:4;stroke-dasharray:none;stroke-opacity:1"
   id="rect1025"
   width="92.547394"
   height="81.101768"
   x="-788.8869"
   y="242.08699"
   ry="10.748666"
   rx="10.748666" /><rect
   ry="10.748666"
   y="242.08699"
   x="-635.91388"
   height="81.101768"
   width="92.547394"
   id="rect1027"
   style="fill:#ffffff;stroke:#000000;stroke-width:1.5;stroke-linecap:round;stroke-linejoin:round;stroke-miterlimit:4;stroke-dasharray:none;stroke-opacity:1"
   rx="10.748666" /><rect
   style="fill:#ffffff;stroke:#000000;stroke-width:1.5;stroke-linecap:round;stroke-linejoin:round;stroke-miterlimit:4;stroke-dasharray:none;stroke-opacity:1"
   id="rect1029"
   width="92.547394"
   height="81.101768"
   x="-482.94086"
   y="242.08699"
   ry="10.748666"
   rx="10.748666" /><rect
   ry="10.748666"
   y="242.08699"
   x="-329.96796"
   height="81.101768"
   width="92.547394"
   id="rect1031"
   style="fill:#a694b9;fill-opacity:1;stroke:#000000;stroke-width:1.5;stroke-linecap:round;stroke-linejoin:round;stroke-miterlimit:4;stroke-dasharray:none;stroke-opacity:1"
   rx="10.748666" /><rect
   style="fill:#a694b9;fill-opacity:1;stroke:#000000;stroke-width:1.5;stroke-linecap:round;stroke-linejoin:round;stroke-miterlimit:4;stroke-dasharray:none;stroke-opacity:1"
   id="rect1033"
   width="92.547394"
   height="81.101768"
   x="-329.96796"
   y="383.02289"
   ry="10.748666"
   rx="10.748666" /><rect
   ry="10.748666"
   y="383.02289"
   x="-482.94086"
   height="81.101768"
   width="92.547394"
   id="rect1035"
   style="fill:#ffffff;stroke:#000000;stroke-width:1.5;stroke-linecap:round;stroke-linejoin:round;stroke-miterlimit:4;stroke-dasharray:none;stroke-opacity:1"
   rx="10.748666" /><rect
   style="fill:#ffffff;stroke:#000000;stroke-width:1.5;stroke-linecap:round;stroke-linejoin:round;stroke-miterlimit:4;stroke-dasharray:none;stroke-opacity:1"
   id="rect1037"
   width="92.547394"
   height="81.101768"
   x="-635.91388"
   y="383.02289"
   ry="10.748666"
   rx="10.748666" /><rect
   ry="10.748666"
   y="383.02289"
   x="-788.8869"
   height="81.101768"
   width="92.547394"
   id="rect1039"
   style="fill:#ffffff;stroke:#000000;stroke-width:1.5;stroke-linecap:round;stroke-linejoin:round;stroke-miterlimit:4;stroke-dasharray:none;stroke-opacity:1"
   rx="10.748666" /><rect
   style="fill:#ffffff;stroke:#000000;stroke-width:1.5;stroke-linecap:round;stroke-linejoin:round;stroke-miterlimit:4;stroke-dasharray:none;stroke-opacity:1"
   id="rect1041"
   width="92.547394"
   height="81.101768"
   x="-482.94086"
   y="523.95892"
   ry="10.748666"
   rx="10.748666" /><rect
   ry="10.748666"
   y="523.95892"
   x="-635.91388"
   height="81.101768"
   width="92.547394"
   id="rect1043"
   style="fill:#ffffff;stroke:#000000;stroke-width:1.5;stroke-linecap:round;stroke-linejoin:round;stroke-miterlimit:4;stroke-dasharray:none;stroke-opacity:1"
   rx="10.748666" /><rect
   style="fill:#ffffff;stroke:#000000;stroke-width:1.5;stroke-linecap:round;stroke-linejoin:round;stroke-miterlimit:4;stroke-dasharray:none;stroke-opacity:1"
   id="rect1045"
   width="92.547394"
   height="81.101768"
   x="-788.8869"
   y="523.95892"
   ry="10.748666"
   rx="10.748666" /><path
   id="path1047"
   style="fill:#a694b9;fill-opacity:1;stroke:#000000;stroke-width:1.9;stroke-miterlimit:4;stroke-dasharray:none"
   d="m -778.63663,57.834442 c -41.17253,0 -74.31836,33.145854 -74.31836,74.318358 v 42.54493 h 679.97652 V 132.1528 c 0,-41.172504 -33.1458,-74.318358 -74.3183,-74.318358 h -54.377 v 31.210934 c 0,14.749404 -11.8736,26.623054 -26.623,26.623054 h -0.457 c -14.7494,0 -26.6231,-11.87365 -26.6231,-26.623054 V 57.834442 h -130.7812 v 31.287114 c 0,14.749394 -11.8737,26.624994 -26.6231,26.625004 h -0.457 c -14.7494,0 -26.6231,-11.87561 -26.6231,-26.625004 V 57.834442 h -130.9531 v 31.210934 c 0,14.749404 -11.8756,26.623054 -26.625,26.623054 h -0.45507 c -14.7494,0 -26.625,-11.87365 -26.625,-26.623054 V 57.834442 Z" /><rect
   style="fill:url(#linearGradient1059);fill-opacity:1;stroke:#000000;stroke-width:2.044;stroke-linecap:round;stroke-linejoin:round;stroke-miterlimit:4;stroke-dasharray:none;stroke-opacity:1"
   id="rect1049"
   width="53.70369"
   height="115.66843"
   x="-724.51733"
   y="0"
   rx="26.623463"
   ry="26.623463" /><rect
   rx="26.623463"
   y="0.076967716"
   x="-539.85956"
   height="115.66843"
   width="53.70369"
   id="rect1051"
   style="fill:url(#linearGradient1057);fill-opacity:1;stroke:#000000;stroke-width:2.044;stroke-linecap:round;stroke-linejoin:round;stroke-miterlimit:4;stroke-dasharray:none;stroke-opacity:1"
   ry="26.623463" /><rect
   style="fill:url(#linearGradient1055);fill-opacity:1;stroke:#000000;stroke-width:2.044;stroke-linecap:round;stroke-linejoin:round;stroke-miterlimit:4;stroke-dasharray:none;stroke-opacity:1"
   id="rect1053"
   width="53.70369"
   height="115.66843"
   x="-355.37592"
   y="0"
   rx="26.623463"
   ry="26.623463" /><g
   transform="translate(-1774.9112,-666.13338)"
   style="fill:#ececec"
   id="g1075"><path
     d="m 155.55921,781.57456 c -14.7494,0 -26.625,11.87365 -26.625,26.62304 v 31.21094 H 74.817019 c -41.172528,0 -74.318359,33.14584 -74.318359,74.31836 v 464.8184 c 0,41.1725 33.145831,74.3183 74.318359,74.3183 H 606.15686 c 41.17253,0 74.31836,-33.1458 74.31836,-74.3183 V 913.7269 c 0,-41.17252 -33.14583,-74.31836 -74.31836,-74.31836 H 551.77991 V 808.1976 c 0,-14.74939 -11.87365,-26.62304 -26.62305,-26.62304 h -0.45703 c -14.7494,0 -26.62305,11.87365 -26.62305,26.62304 v 31.21094 H 367.29554 v -31.13281 c 0,-14.7494 -11.87365,-26.625 -26.62305,-26.625 h -0.45703 c -14.7494,0 -26.62305,11.8756 -26.62305,26.625 v 31.13281 H 182.63928 V 808.1976 c 10e-6,-14.74939 -11.87559,-26.62304 -26.625,-26.62304 z"
     style="fill:#ececec;fill-opacity:1;stroke:none;stroke-width:2.044;stroke-linecap:round;stroke-linejoin:round;stroke-miterlimit:4;stroke-dasharray:none;stroke-opacity:1;filter:url(#filter1231)"
     id="rect1069" /></g><g
   id="g1256"
   style="fill:#b3b3b3;filter:url(#filter1381)"
   transform="matrix(0.7817576,0,0,0.7817576,-1699.0951,-422.30881)"><path
     id="path1254"
     style="fill:#b3b3b3;fill-opacity:1;stroke:none;stroke-width:2.044;stroke-linecap:round;stroke-linejoin:round;stroke-miterlimit:4;stroke-dasharray:none;stroke-opacity:1;filter:url(#filter1231)"
     d="m 155.55921,781.57456 c -14.7494,0 -26.625,11.87365 -26.625,26.62304 v 31.21094 H 74.817019 c -41.172528,0 -74.318359,33.14584 -74.318359,74.31836 v 464.8184 c 0,41.1725 33.145831,74.3183 74.318359,74.3183 H 606.15686 c 41.17253,0 74.31836,-33.1458 74.31836,-74.3183 V 913.7269 c 0,-41.17252 -33.14583,-74.31836 -74.31836,-74.31836 H 551.77991 V 808.1976 c 0,-14.74939 -11.87365,-26.62304 -26.62305,-26.62304 h -0.45703 c -14.7494,0 -26.62305,11.87365 -26.62305,26.62304 v 31.21094 H 367.29554 v -31.13281 c 0,-14.7494 -11.87365,-26.625 -26.62305,-26.625 h -0.45703 c -14.7494,0 -26.62305,11.8756 -26.62305,26.625 v 31.13281 H 182.63928 V 808.1976 c 10e-6,-14.74939 -11.87559,-26.62304 -26.625,-26.62304 z" /></g><rect
   ry="68.932495"
   y="129.64725"
   x="-1660.8185"
   height="568.99597"
   width="630.69678"
   id="rect1279"
   style="fill:#e6e6e6;stroke:#000000;stroke-width:2.78258;stroke-miterlimit:4;stroke-dasharray:none"
   rx="68.932495" /><rect
   style="fill:#e6e6e6;stroke:#000000;stroke-width:2.94915;stroke-miterlimit:4;stroke-dasharray:none"
   id="rect1275"
   width="668.4505"
   height="603.05627"
   x="-1679.6953"
   y="81.494781"
   ry="73.05883"
   rx="73.05883" /><path
   id="path1205"
   d="m -1506.1952,57.911181 h 321.9451"
   style="fill:none;stroke:#000000;stroke-width:1;stroke-linecap:butt;stroke-linejoin:miter;stroke-opacity:1" /><rect
   ry="74.318642"
   y="57.83379"
   x="-1685.4586"
   height="613.45526"
   width="679.97717"
   id="rect61"
   style="fill:#ffffff;stroke:#000000;stroke-width:3;stroke-miterlimit:4;stroke-dasharray:none"
   rx="74.318642" /><rect
   ry="10.748666"
   y="242.08699"
   x="-1621.392"
   height="81.101768"
   width="92.547394"
   id="rect1669-2-3-9-3-1"
   style="fill:#ffffff;stroke:#000000;stroke-width:1.5;stroke-linecap:round;stroke-linejoin:round;stroke-miterlimit:4;stroke-dasharray:none;stroke-opacity:1"
   rx="10.748666" /><rect
   style="fill:#ffffff;stroke:#000000;stroke-width:1.5;stroke-linecap:round;stroke-linejoin:round;stroke-miterlimit:4;stroke-dasharray:none;stroke-opacity:1"
   id="rect41"
   width="92.547394"
   height="81.101768"
   x="-1468.4189"
   y="242.08699"
   ry="10.748666"
   rx="10.748666" /><rect
   ry="10.748666"
   y="242.08699"
   x="-1315.4458"
   height="81.101768"
   width="92.547394"
   id="rect43"
   style="fill:#ffffff;stroke:#000000;stroke-width:1.5;stroke-linecap:round;stroke-linejoin:round;stroke-miterlimit:4;stroke-dasharray:none;stroke-opacity:1"
   rx="10.748666" /><rect
   style="fill:#a694b9;fill-opacity:1;stroke:#000000;stroke-width:1.5;stroke-linecap:round;stroke-linejoin:round;stroke-miterlimit:4;stroke-dasharray:none;stroke-opacity:1"
   id="rect45"
   width="92.547394"
   height="81.101768"
   x="-1162.4729"
   y="242.08699"
   ry="10.748666"
   rx="10.748666" /><rect
   ry="10.748666"
   y="383.02289"
   x="-1162.4729"
   height="81.101768"
   width="92.547394"
   id="rect47"
   style="fill:#a694b9;fill-opacity:1;stroke:#000000;stroke-width:1.5;stroke-linecap:round;stroke-linejoin:round;stroke-miterlimit:4;stroke-dasharray:none;stroke-opacity:1"
   rx="10.748666" /><rect
   style="fill:#ffffff;stroke:#000000;stroke-width:1.5;stroke-linecap:round;stroke-linejoin:round;stroke-miterlimit:4;stroke-dasharray:none;stroke-opacity:1"
   id="rect49"
   width="92.547394"
   height="81.101768"
   x="-1315.4458"
   y="383.02289"
   ry="10.748666"
   rx="10.748666" /><rect
   ry="10.748666"
   y="383.02289"
   x="-1468.4189"
   height="81.101768"
   width="92.547394"
   id="rect51"
   style="fill:#ffffff;stroke:#000000;stroke-width:1.5;stroke-linecap:round;stroke-linejoin:round;stroke-miterlimit:4;stroke-dasharray:none;stroke-opacity:1"
   rx="10.748666" /><rect
   style="fill:#ffffff;stroke:#000000;stroke-width:1.5;stroke-linecap:round;stroke-linejoin:round;stroke-miterlimit:4;stroke-dasharray:none;stroke-opacity:1"
   id="rect53"
   width="92.547394"
   height="81.101768"
   x="-1621.392"
   y="383.02289"
   ry="10.748666"
   rx="10.748666" /><rect
   ry="10.748666"
   y="523.95892"
   x="-1315.4458"
   height="81.101768"
   width="92.547394"
   id="rect55"
   style="fill:#ffffff;stroke:#000000;stroke-width:1.5;stroke-linecap:round;stroke-linejoin:round;stroke-miterlimit:4;stroke-dasharray:none;stroke-opacity:1"
   rx="10.748666" /><rect
   style="fill:#ffffff;stroke:#000000;stroke-width:1.5;stroke-linecap:round;stroke-linejoin:round;stroke-miterlimit:4;stroke-dasharray:none;stroke-opacity:1"
   id="rect57"
   width="92.547394"
   height="81.101768"
   x="-1468.4189"
   y="523.95892"
   ry="10.748666"
   rx="10.748666" /><rect
   ry="10.748666"
   y="523.95892"
   x="-1621.392"
   height="81.101768"
   width="92.547394"
   id="rect59"
   style="fill:#ffffff;stroke:#000000;stroke-width:1.5;stroke-linecap:round;stroke-linejoin:round;stroke-miterlimit:4;stroke-dasharray:none;stroke-opacity:1"
   rx="10.748666" /><path
   d="m -1611.1417,57.834442 c -41.1725,0 -74.3183,33.145854 -74.3183,74.318358 v 42.54493 h 679.9765 V 132.1528 c 0,-41.172504 -33.1458,-74.318358 -74.3183,-74.318358 h -54.377 v 31.210934 c 0,14.749404 -11.8736,26.623054 -26.623,26.623054 h -0.457 c -14.7494,0 -26.6231,-11.87365 -26.6231,-26.623054 V 57.834442 h -130.7812 v 31.287114 c 0,14.749394 -11.8737,26.624994 -26.6231,26.625004 h -0.457 c -14.7494,0 -26.6231,-11.87561 -26.6231,-26.625004 V 57.834442 h -130.9531 v 31.210934 c 0,14.749404 -11.8756,26.623054 -26.625,26.623054 h -0.4551 c -14.7494,0 -26.625,-11.87365 -26.625,-26.623054 V 57.834442 Z"
   style="fill:#a694b9;fill-opacity:1;stroke:#000000;stroke-width:1.9;stroke-miterlimit:4;stroke-dasharray:none"
   id="path905" /><rect
   rx="26.623463"
   y="0"
   x="-1557.0223"
   height="115.66843"
   width="53.70369"
   id="rect1009"
   style="fill:url(#linearGradient1011);fill-opacity:1;stroke:#000000;stroke-width:2.044;stroke-linecap:round;stroke-linejoin:round;stroke-miterlimit:4;stroke-dasharray:none;stroke-opacity:1"
   ry="26.623463" /><rect
   style="fill:url(#linearGradient943);fill-opacity:1;stroke:#000000;stroke-width:2.044;stroke-linecap:round;stroke-linejoin:round;stroke-miterlimit:4;stroke-dasharray:none;stroke-opacity:1"
   id="rect913"
   width="53.70369"
   height="115.66843"
   x="-1372.3646"
   y="0.076967716"
   rx="26.623463"
   ry="26.623463" /><rect
   rx="26.623463"
   y="0"
   x="-1187.881"
   height="115.66843"
   width="53.70369"
   id="rect915"
   style="fill:url(#linearGradient1019);fill-opacity:1;stroke:#000000;stroke-width:2.044;stroke-linecap:round;stroke-linejoin:round;stroke-miterlimit:4;stroke-dasharray:none;stroke-opacity:1"
   ry="26.623463" /><g
   transform="translate(35.200027,-683.5498)"
   style="fill:#ececec"
   id="g1395"><path
     d="m 155.55921,781.57456 c -14.7494,0 -26.625,11.87365 -26.625,26.62304 v 31.21094 H 74.817019 c -41.172528,0 -74.318359,33.14584 -74.318359,74.31836 v 464.8184 c 0,41.1725 33.145831,74.3183 74.318359,74.3183 H 606.15686 c 41.17253,0 74.31836,-33.1458 74.31836,-74.3183 V 913.7269 c 0,-41.17252 -33.14583,-74.31836 -74.31836,-74.31836 H 551.77991 V 808.1976 c 0,-14.74939 -11.87365,-26.62304 -26.62305,-26.62304 h -0.45703 c -14.7494,0 -26.62305,11.87365 -26.62305,26.62304 v 31.21094 H 367.29554 v -31.13281 c 0,-14.7494 -11.87365,-26.625 -26.62305,-26.625 h -0.45703 c -14.7494,0 -26.62305,11.8756 -26.62305,26.625 v 31.13281 H 182.63928 V 808.1976 c 10e-6,-14.74939 -11.87559,-26.62304 -26.625,-26.62304 z"
     style="fill:#ececec;fill-opacity:1;stroke:none;stroke-width:2.044;stroke-linecap:round;stroke-linejoin:round;stroke-miterlimit:4;stroke-dasharray:none;stroke-opacity:1;filter:url(#filter1231)"
     id="path1393" /></g><g
   id="g1399"
   style="fill:#b3b3b3;filter:url(#filter1381)"
   transform="matrix(0.7817576,0,0,0.7817576,111.01613,-439.72523)"><path
     id="path1397"
     style="fill:#b3b3b3;fill-opacity:1;stroke:none;stroke-width:2.044;stroke-linecap:round;stroke-linejoin:round;stroke-miterlimit:4;stroke-dasharray:none;stroke-opacity:1;filter:url(#filter1231)"
     d="m 155.55921,781.57456 c -14.7494,0 -26.625,11.87365 -26.625,26.62304 v 31.21094 H 74.817019 c -41.172528,0 -74.318359,33.14584 -74.318359,74.31836 v 464.8184 c 0,41.1725 33.145831,74.3183 74.318359,74.3183 H 606.15686 c 41.17253,0 74.31836,-33.1458 74.31836,-74.3183 V 913.7269 c 0,-41.17252 -33.14583,-74.31836 -74.31836,-74.31836 H 551.77991 V 808.1976 c 0,-14.74939 -11.87365,-26.62304 -26.62305,-26.62304 h -0.45703 c -14.7494,0 -26.62305,11.87365 -26.62305,26.62304 v 31.21094 H 367.29554 v -31.13281 c 0,-14.7494 -11.87365,-26.625 -26.62305,-26.625 h -0.45703 c -14.7494,0 -26.62305,11.8756 -26.62305,26.625 v 31.13281 H 182.63928 V 808.1976 c 10e-6,-14.74939 -11.87559,-26.62304 -26.625,-26.62304 z" /></g><path
   id="path1401"
   d="m 305.65763,57.911181 h 321.9451"
   style="fill:none;stroke:#000000;stroke-width:1.00601;stroke-linecap:butt;stroke-linejoin:miter;stroke-miterlimit:4;stroke-dasharray:none;stroke-opacity:1" /><rect
   ry="74.318642"
   y="57.83379"
   x="126.39411"
   height="613.45526"
   width="679.97717"
   id="rect1403"
   style="fill:#ffffff;stroke:none;stroke-width:3.01803;stroke-miterlimit:4;stroke-dasharray:none"
   rx="74.318642" /><rect
   ry="10.748666"
   y="242.08699"
   x="190.46088"
   height="81.101768"
   width="92.547394"
   id="rect1405"
   style="fill:#ffffff;stroke:#000000;stroke-width:1;stroke-linecap:round;stroke-linejoin:round;stroke-miterlimit:4;stroke-dasharray:none;stroke-opacity:1"
   rx="10.748666" /><rect
   style="fill:#ffffff;stroke:#000000;stroke-width:1;stroke-linecap:round;stroke-linejoin:round;stroke-miterlimit:4;stroke-dasharray:none;stroke-opacity:1"
   id="rect1407"
   width="92.547394"
   height="81.101768"
   x="343.4339"
   y="242.08699"
   ry="10.748666"
   rx="10.748666" /><rect
   ry="10.748666"
   y="242.08699"
   x="496.40704"
   height="81.101768"
   width="92.547394"
   id="rect1409"
   style="fill:#ffffff;stroke:#000000;stroke-width:1;stroke-linecap:round;stroke-linejoin:round;stroke-miterlimit:4;stroke-dasharray:none;stroke-opacity:1"
   rx="10.748666" /><rect
   style="fill:#ddd6f3;fill-opacity:1;stroke:#000000;stroke-width:1;stroke-linecap:round;stroke-linejoin:round;stroke-miterlimit:4;stroke-dasharray:none;stroke-opacity:1"
   id="rect1411"
   width="92.547394"
   height="81.101768"
   x="649.37994"
   y="242.08699"
   ry="10.748666"
   rx="10.748666" /><rect
   ry="10.748666"
   y="383.02289"
   x="649.37994"
   height="81.101768"
   width="92.547394"
   id="rect1413"
   style="fill:#ddd6f3;fill-opacity:1;stroke:#000000;stroke-width:1;stroke-linecap:round;stroke-linejoin:round;stroke-miterlimit:4;stroke-dasharray:none;stroke-opacity:1"
   rx="10.748666" /><rect
   style="fill:#ffffff;stroke:#000000;stroke-width:1;stroke-linecap:round;stroke-linejoin:round;stroke-miterlimit:4;stroke-dasharray:none;stroke-opacity:1"
   id="rect1415"
   width="92.547394"
   height="81.101768"
   x="496.40704"
   y="383.02289"
   ry="10.748666"
   rx="10.748666" /><rect
   ry="10.748666"
   y="383.02289"
   x="343.4339"
   height="81.101768"
   width="92.547394"
   id="rect1417"
   style="fill:#ffffff;stroke:#000000;stroke-width:1;stroke-linecap:round;stroke-linejoin:round;stroke-miterlimit:4;stroke-dasharray:none;stroke-opacity:1"
   rx="10.748666" /><rect
   style="fill:#ffffff;stroke:#000000;stroke-width:1;stroke-linecap:round;stroke-linejoin:round;stroke-miterlimit:4;stroke-dasharray:none;stroke-opacity:1"
   id="rect1419"
   width="92.547394"
   height="81.101768"
   x="190.46088"
   y="383.02289"
   ry="10.748666"
   rx="10.748666" /><rect
   ry="10.748666"
   y="523.95892"
   x="496.40704"
   height="81.101768"
   width="92.547394"
   id="rect1421"
   style="fill:#ffffff;stroke:#000000;stroke-width:1;stroke-linecap:round;stroke-linejoin:round;stroke-miterlimit:4;stroke-dasharray:none;stroke-opacity:1"
   rx="10.748666" /><rect
   style="fill:#ffffff;stroke:#000000;stroke-width:1;stroke-linecap:round;stroke-linejoin:round;stroke-miterlimit:4;stroke-dasharray:none;stroke-opacity:1"
   id="rect1423"
   width="92.547394"
   height="81.101768"
   x="343.4339"
   y="523.95892"
   ry="10.748666"
   rx="10.748666" /><rect
   ry="10.748666"
   y="523.95892"
   x="190.46088"
   height="81.101768"
   width="92.547394"
   id="rect1425"
   style="fill:#ffffff;stroke:#000000;stroke-width:1;stroke-linecap:round;stroke-linejoin:round;stroke-miterlimit:4;stroke-dasharray:none;stroke-opacity:1"
   rx="10.748666" /><path
   d="m 200.71123,57.834442 c -41.1726,0 -74.3184,33.145854 -74.3184,74.318358 v 42.54493 h 679.9765 V 132.1528 c 0,-41.172504 -33.1458,-74.318358 -74.3183,-74.318358 h -54.377 v 31.210934 c 0,14.749404 -11.8736,26.623054 -26.623,26.623054 h -0.457 c -14.7494,0 -26.6231,-11.87365 -26.6231,-26.623054 V 57.834442 h -130.7812 v 31.287114 c 0,14.749394 -11.8737,26.624994 -26.6231,26.625004 h -0.457 c -14.7494,0 -26.6231,-11.87561 -26.6231,-26.625004 V 57.834442 h -130.9531 v 31.210934 c 0,14.749404 -11.8756,26.623054 -26.625,26.623054 h -0.455 c -14.7494,0 -26.625,-11.87365 -26.625,-26.623054 V 57.834442 Z"
   style="fill:#a694b9;fill-opacity:1;stroke:none;stroke-width:1.91142;stroke-miterlimit:4;stroke-dasharray:none"
   id="path1427" /><rect
   rx="26.623463"
   y="0"
   x="254.83051"
   height="115.66843"
   width="53.70369"
   id="rect1429"
   style="fill:url(#linearGradient942);fill-opacity:1.0;stroke:none;stroke-width:1;stroke-linecap:round;stroke-linejoin:round;stroke-miterlimit:4;stroke-dasharray:none;stroke-opacity:1"
   ry="26.623463" /><rect
   style="fill:url(#linearGradient968);fill-opacity:1.0;stroke:none;stroke-width:1;stroke-linecap:round;stroke-linejoin:round;stroke-miterlimit:4;stroke-dasharray:none;stroke-opacity:1"
   id="rect1431"
   width="53.70369"
   height="115.66843"
   x="439.48834"
   y="0.076967716"
   rx="26.623463"
   ry="26.623463" /><rect
   rx="26.623463"
   y="0"
   x="623.97198"
   height="115.66843"
   width="53.70369"
   id="rect1433"
   style="fill:url(#linearGradient994);fill-opacity:1.0;stroke:none;stroke-width:1;stroke-linecap:round;stroke-linejoin:round;stroke-miterlimit:4;stroke-dasharray:none;stroke-opacity:1"
   ry="26.623463" /></svg>
