<?xml version="1.0" encoding="UTF-8" standalone="no"?>
<!-- Created with Inkscape (http://www.inkscape.org/) -->

<svg
   width="60"
   height="60"
   viewBox="0 0 120 120"
   version="1.1"
   id="svg5"
   sodipodi:docname="problema.svgz"
   inkscape:version="1.1.2 (b8e25be833, 2022-02-05)"
   xmlns:inkscape="http://www.inkscape.org/namespaces/inkscape"
   xmlns:sodipodi="http://sodipodi.sourceforge.net/DTD/sodipodi-0.dtd"
   xmlns="http://www.w3.org/2000/svg"
   xmlns:svg="http://www.w3.org/2000/svg">
  <sodipodi:namedview
     id="namedview11"
     pagecolor="#ffffff"
     bordercolor="#666666"
     borderopacity="1.0"
     inkscape:pageshadow="2"
     inkscape:pageopacity="0.0"
     inkscape:pagecheckerboard="0"
     showgrid="false"
     inkscape:zoom="3.3666667"
     inkscape:cx="15.148515"
     inkscape:cy="40.247525"
     inkscape:window-width="1920"
     inkscape:window-height="1001"
     inkscape:window-x="-9"
     inkscape:window-y="-9"
     inkscape:window-maximized="1"
     inkscape:current-layer="layer1" />
  <defs
     id="defs2" />
  <g
     id="layer1"
     transform="translate(1.1881188,-3.4158416)">
    <path
       style="fill:#ffd5d5;fill-rule:evenodd;stroke:#701212;stroke-width:1.4;stroke-linejoin:round;stroke-miterlimit:4;stroke-dasharray:none;stroke-opacity:1"
       id="path1076"
       d="m 111.38614,81.089109 -0.33835,0.789459 -0.3504,0.784182 -0.36238,0.77872 -0.37428,0.773075 -0.38607,0.767249 -0.39779,0.761242 -0.4094,0.755058 -0.42093,0.748695 -0.43235,0.742157 -0.44368,0.735444 -0.45489,0.728558 -0.466,0.721503 -0.47701,0.714276 -0.48789,0.706883 -0.49867,0.699323 -0.50933,0.691599 -0.51986,0.683714 -0.53029,0.675666 -0.54057,0.66746 -0.55074,0.659099 -0.56078,0.650581 -0.57067,0.641912 -0.58045,0.633091 -0.59009,0.624121 -0.599572,0.615006 -0.608931,0.605746 -0.618142,0.596342 -0.627208,0.5868 -0.636126,0.57712 -0.644896,0.56731 -0.653514,0.55735 -0.661978,0.54728 -0.670286,0.53706 -0.678439,0.52673 -0.68643,0.51628 -0.694261,0.50569 -0.701929,0.495 -0.709432,0.48418 -0.716769,0.47325 -0.723936,0.46221 -0.730935,0.45107 -0.73776,0.43981 -0.744414,0.42845 -0.750893,0.41699 -0.757194,0.40544 -0.763319,0.39379 -0.769263,0.38205 -0.775028,0.37021 -0.780609,0.35829 -0.786009,0.34629 -0.791223,0.3342 -0.796252,0.32204 -0.801092,0.3098 -0.805747,0.29748 -0.81021,0.2851 -0.814484,0.27266 -0.818567,0.26014 -0.822457,0.24756 -0.826155,0.23494 -0.829657,0.22224 -0.832966,0.20951 -0.836079,0.19671 -0.838995,0.18388 -0.841714,0.17101 -0.844236,0.15808 -0.846559,0.14513 -0.848684,0.13214 -0.850609,0.11911 -0.852334,0.10607 -0.85386,0.093 -0.855185,0.0799 -0.856308,0.0668 -0.857232,0.0537 -0.857953,0.0405 -0.858473,0.0274 -0.858791,0.0142 -0.858909,10e-4 -0.858823,-0.0121 -0.858537,-0.0253 -0.858048,-0.0384 -0.857359,-0.0516 -0.856468,-0.0647 -0.855375,-0.0778 -0.854082,-0.0909 -0.852589,-0.10401 -0.850894,-0.11706 -0.849001,-0.13008 -0.846908,-0.14308 -0.844615,-0.15604 -0.842125,-0.16897 -0.839437,-0.18185 -0.836552,-0.1947 -0.83347,-0.20749 -0.830192,-0.22024 -0.82672,-0.23293 -0.823053,-0.24558 -0.819194,-0.25816 -0.815141,-0.27068 -0.810897,-0.28315 -0.806463,-0.29553 -0.80184,-0.30786 -0.797027,-0.32012 -0.792029,-0.33228 -0.786844,-0.34439 -0.781473,-0.3564 -0.775921,-0.36834 -0.770184,-0.38018 -0.764269,-0.39195 -0.758172,-0.4036 -0.751898,-0.41518 -0.745448,-0.42666 -0.738822,-0.43802 -0.732023,-0.4493 -0.725052,-0.46046 -0.71791,-0.47152 -0.710601,-0.48246 -0.703123,-0.4933 -0.695482,-0.50401 -0.687676,-0.51461 -0.67971,-0.52509 -0.671583,-0.53545 -0.663299,-0.54567 -0.654859,-0.55577 -0.646266,-0.56575 -0.63752,-0.57558 -0.628625,-0.58528 L 20.578085,99.537633 19.967692,98.933362 19.36663,98.319807 18.775041,97.697114 18.193063,97.065428 17.620835,96.424898 17.058489,95.775674 16.506157,95.117909 15.963971,94.451757 15.432056,93.777375 14.910538,93.094921 14.39954,92.404555 13.899181,91.706439 13.409579,91.000738 12.930848,90.287617 12.463102,89.567243 12.00645,88.839786 11.560999,88.105417 11.126855,87.364308 10.704118,86.616633 10.292888,85.862567 9.8932623,85.102289 9.5053341,84.335975 9.1291945,83.563807 8.7649321,82.785965 8.4126322,82.002633 8.0723777,81.213994 7.7442484,80.420234 7.4283215,79.621538 7.124671,78.818095 6.8333684,78.010093 6.5544819,77.197722 6.2880772,76.381172 6.0342168,75.560636 5.7929603,74.736306 5.5643644,73.908376 5.3484827,73.07704 5.1453659,72.242493 4.9550618,71.404932 4.777615,70.564553 4.6130673,69.721553 4.4614572,68.87613 4.3228203,68.028484 4.1971893,67.178813 4.0845936,66.327316 l -0.099534,-0.853122 -0.086449,-0.854548 -0.073343,-0.855771 -0.060221,-0.856796 -0.047084,-0.857617 -0.033936,-0.858238 -0.02078,-0.858658 -0.00762,-0.858875 0.00554,-0.858891 0.018704,-0.858705 0.031861,-0.858318 0.04501,-0.857729 0.058149,-0.856938 0.071274,-0.855947 0.084383,-0.854754 0.097471,-0.85336 0.1105368,-0.851767 0.1235765,-0.849972 0.1365872,-0.847979 0.1495658,-0.845787 0.1625093,-0.843395 0.1754145,-0.840806 0.1882787,-0.838018 0.2010986,-0.835036 0.2138712,-0.831855 0.2265937,-0.828481 0.2392629,-0.824911 0.2518759,-0.821147 0.2644299,-0.817191 0.2769216,-0.813043 0.2893484,-0.808704 0.3017071,-0.804175 0.3139952,-0.799457 0.3262093,-0.794552 0.3383469,-0.789459 0.350405,-0.784182 0.3623809,-0.77872 0.3742717,-0.773075 0.3860745,-0.767249 0.3977868,-0.761242 0.409406,-0.755058 0.420928,-0.748695 0.432351,-0.742157 0.443674,-0.735444 0.454892,-0.728558 0.466004,-0.721503 0.477005,-0.714276 0.487894,-0.706883 0.49867,-0.699323 0.509328,-0.691599 0.519866,-0.683714 0.530283,-0.675666 0.540575,-0.66746 0.550739,-0.659099 0.560775,-0.650581 0.570678,-0.641912 0.580449,-0.633091 0.590082,-0.624121 0.599577,-0.615006 0.608931,-0.605746 0.618142,-0.596343 0.627208,-0.5868 0.636126,-0.57712 0.644896,-0.567304 0.653514,-0.557355 0.661978,-0.547275 0.670286,-0.537067 0.678438,-0.526731 0.686431,-0.516274 0.694261,-0.505693 0.701929,-0.494995 0.709432,-0.484181 0.716768,-0.473252 0.723937,-0.462213 0.730934,-0.451064 0.737761,-0.439811 0.744414,-0.428453 0.750893,-0.416996 0.757194,-0.4054396 0.763318,-0.3937886 0.769264,-0.3820451 0.775027,-0.3702119 0.78061,-0.3582916 0.786009,-0.3462874 0.791223,-0.3342017 0.796251,-0.3220376 0.801093,-0.3097978 0.805747,-0.2974852 0.81021,-0.2851029 0.814484,-0.2726536 0.818567,-0.2601402 0.822457,-0.2475657 0.826155,-0.2349332 0.829657,-0.2222453 0.832966,-0.2095054 0.836078,-0.1967162 0.838995,-0.1838808 0.841715,-0.1710023 0.844235,-0.1580836 0.84656,-0.1451277 0.848683,-0.1321379 0.850609,-0.1191168 0.852335,-0.106068 0.85386,-0.092994 0.855184,-0.079898 0.856309,-0.066784 0.857232,-0.053654 0.857953,-0.040511 0.858473,-0.027359 0.858791,-0.0142 0.858909,-0.00104 0.858823,0.012124 0.858537,0.025283 0.858048,0.038437 0.857359,0.051581 0.856468,0.064714 0.855375,0.077831 0.854082,0.09093 0.852589,0.1040071 0.850894,0.1170601 0.849001,0.1300856 0.846907,0.1430807 0.844616,0.1560421 0.842125,0.1689669 0.839437,0.1818519 0.836552,0.1946944 0.83347,0.207491 0.830192,0.2202389 0.82672,0.2329351 0.823053,0.2455767 0.819194,0.2581604 0.815141,0.2706837 0.810897,0.2831433 0.806463,0.2955365 0.80184,0.3078602 0.797027,0.3201116 0.792029,0.3322878 0.786843,0.3443861 0.781474,0.3564035 0.775921,0.368337 0.770184,0.3801843 0.764269,0.391942 0.758172,0.4036082 0.751898,0.415179 0.745448,0.426652 0.738822,0.438026 0.732023,0.449296 0.725052,0.460462 0.71791,0.471517 0.710601,0.482464 0.703123,0.493297 0.695482,0.504014 0.687676,0.514612 0.67971,0.52509 0.671583,0.535444 0.663299,0.545673 0.654859,0.555774 0.646266,0.565743 0.63752,0.575581 0.628624,0.585282 0.619582,0.594847 0.610394,0.604271 0.601061,0.613555 0.59159,0.622693 0.58198,0.631686 0.57223,0.64053 0.56235,0.649224 0.55233,0.657765 0.54218,0.666152 0.53192,0.674382 0.52152,0.682454 0.51099,0.690366 0.50036,0.698116 0.48961,0.705701 0.47873,0.713121 0.46774,0.720374 0.45665,0.727457 0.44546,0.734369 0.43414,0.741109 0.42274,0.747675 0.41123,0.754066 0.39962,0.760279 0.38793,0.766313 0.37614,0.772168 0.36426,0.777842 0.3523,0.783332 0.34026,0.788639 0.32813,0.79376 0.31592,0.798696 0.30365,0.803443 0.29131,0.808002 0.27888,0.812371 0.26641,0.81655 0.25386,0.820536 0.24125,0.82433 0.2286,0.82793 0.21588,0.831336 0.20312,0.834547 0.1903,0.837561 0.17745,0.840379 0.16455,0.843 0.15161,0.845423 0.13863,0.847646 0.12564,0.849671 0.11259,0.851497 0.0995,0.853122 0.0864,0.854548 0.0734,0.855771 0.0602,0.856796 0.0471,0.857617 0.0339,0.858238 0.0208,0.858658 0.008,0.858875 -0.006,0.858891 -0.0187,0.858705 -0.0319,0.858318 -0.045,0.857729 -0.0581,0.856938 -0.0713,0.855947 -0.0844,0.854754 -0.0975,0.85336 -0.11054,0.851767 -0.12357,0.849972 -0.13659,0.847979 -0.14956,0.845787 -0.16251,0.843395 -0.17542,0.840806 -0.18828,0.838018 -0.2011,0.835036 -0.21387,0.831855 -0.22659,0.828481 -0.23926,0.824911 -0.25188,0.821147 -0.26443,0.817191 -0.27692,0.813043 -0.28935,0.808704 -0.30171,0.804175 -0.31399,0.799457 z" />
    <g
       id="g11790"
       transform="translate(-1.039604,-2.8217822)">
      <text
         xml:space="preserve"
         style="font-style:normal;font-weight:normal;font-size:96px;line-height:1.25;font-family:sans-serif;fill:#ff8080;fill-opacity:1;stroke:none"
         x="44.22818"
         y="95.4925"
         id="text1584-9"><tspan
           id="tspan1582-4"
           x="44.22818"
           y="95.4925"
           style="font-size:96px;fill:#ff8080">!</tspan></text>
      <text
         xml:space="preserve"
         style="font-style:normal;font-weight:normal;font-size:96px;line-height:1.25;font-family:sans-serif;fill:#800000;fill-opacity:1;stroke:none"
         x="41.287132"
         y="93.712875"
         id="text1584"><tspan
           id="tspan1582"
           x="41.287132"
           y="93.712875"
           style="font-size:96px;fill:#800000">!</tspan></text>
    </g>
  </g>
</svg>
