<?xml version="1.0" encoding="UTF-8" standalone="no"?>
<!-- Created with Inkscape (http://www.inkscape.org/) -->

<svg
   width="210mm"
   height="297mm"
   viewBox="0 0 210 297"
   version="1.1"
   id="svg271082"
   inkscape:version="1.1.2 (b8e25be833, 2022-02-05)"
   sodipodi:docname="13-VIDEO.svg"
   xmlns:inkscape="http://www.inkscape.org/namespaces/inkscape"
   xmlns:sodipodi="http://sodipodi.sourceforge.net/DTD/sodipodi-0.dtd"
   xmlns="http://www.w3.org/2000/svg"
   xmlns:svg="http://www.w3.org/2000/svg">
  <sodipodi:namedview
     id="namedview271084"
     pagecolor="#ffffff"
     bordercolor="#666666"
     borderopacity="1.0"
     inkscape:pageshadow="2"
     inkscape:pageopacity="0.0"
     inkscape:pagecheckerboard="0"
     inkscape:document-units="mm"
     showgrid="false"
     inkscape:zoom="0.7198092"
     inkscape:cx="397.32751"
     inkscape:cy="450.81391"
     inkscape:window-width="1920"
     inkscape:window-height="1001"
     inkscape:window-x="-9"
     inkscape:window-y="-9"
     inkscape:window-maximized="1"
     inkscape:current-layer="layer1" />
  <defs
     id="defs271079" />
  <g
     inkscape:label="Sluoksnis 1"
     inkscape:groupmode="layer"
     id="layer1">
    <path
       sodipodi:type="star"
       style="fill:#000000;fill-opacity:1;fill-rule:evenodd;stroke:none;stroke-width:3.8022;stroke-linejoin:round;stroke-miterlimit:4;stroke-dasharray:none;stroke-opacity:1"
       id="path160511"
       inkscape:flatsided="true"
       sodipodi:sides="3"
       sodipodi:cx="180.60341"
       sodipodi:cy="665.4541"
       sodipodi:r1="249.66847"
       sodipodi:r2="124.83423"
       sodipodi:arg1="1.5707963"
       sodipodi:arg2="2.6179939"
       inkscape:rounded="0"
       inkscape:randomized="0"
       transform="matrix(0.17880862,0,0,0.31652564,72.183166,-26.928351)"
       inkscape:transform-center-y="19.756612"
       d="m 180.60342,915.12257 -216.219254,-374.5027 432.438474,-10e-6 z" />
    <path
       sodipodi:type="star"
       style="fill:#87cdde;fill-opacity:1;fill-rule:evenodd;stroke:none;stroke-width:3.8022;stroke-linejoin:round;stroke-miterlimit:4;stroke-dasharray:none;stroke-opacity:1"
       id="path149459"
       inkscape:flatsided="true"
       sodipodi:sides="8"
       sodipodi:cx="-684.90375"
       sodipodi:cy="-141.70422"
       sodipodi:r1="310.26187"
       sodipodi:r2="302.48297"
       sodipodi:arg1="0.89325819"
       sodipodi:arg2="1.2859573"
       inkscape:rounded="0"
       inkscape:randomized="0"
       transform="matrix(0.21864192,0.17698655,-0.17698655,0.21864192,229.42759,264.18854)"
       inkscape:transform-center-x="1.4354344"
       inkscape:transform-center-y="-6.6025546"
       d="m -490.40777,100.0265 -227.89598,66.72814 -208.33072,-113.962881 -66.72814,-227.895989 113.96288,-208.33072 227.89599,-66.72813 208.33071,113.96287 66.72814,227.89599 z" />
    <path
       sodipodi:type="star"
       style="fill:#def4f9;fill-opacity:0.19101124;fill-rule:evenodd;stroke:none;stroke-width:3.8022;stroke-linejoin:round;stroke-miterlimit:4;stroke-dasharray:none;stroke-opacity:1"
       id="path149459-8"
       inkscape:flatsided="true"
       sodipodi:sides="8"
       sodipodi:cx="-684.90375"
       sodipodi:cy="-141.70422"
       sodipodi:r1="310.26187"
       sodipodi:r2="302.48297"
       sodipodi:arg1="0.89325819"
       sodipodi:arg2="1.2859573"
       inkscape:rounded="0"
       inkscape:randomized="0"
       transform="matrix(0.16780157,0.13583224,-0.13583224,0.16780157,200.20166,230.01701)"
       inkscape:transform-center-x="1.1016636"
       inkscape:transform-center-y="-5.067277"
       d="m -490.40777,100.0265 -227.89598,66.72814 -208.33072,-113.962881 -66.72814,-227.895989 113.96288,-208.33072 227.89599,-66.72813 208.33071,113.96287 66.72814,227.89599 z" />
    <g
       style="fill:#0080a0;fill-opacity:1"
       id="g271176"
       transform="matrix(4.0750357,0,0,4.0750357,49.278185,52.351267)">
      <path
         d="M 5.25,5.5 C 3.45507,5.5 2,6.95508 2,8.75 v 10.5 c 0,1.7949 1.45507,3.25 3.25,3.25 h 9.5 C 16.5449,22.5 18,21.0449 18,19.25 V 8.75 C 18,6.95507 16.5449,5.5 14.75,5.5 Z"
         fill="#212121"
         id="path271164"
         style="fill:#0080a0;fill-opacity:1" />
      <path
         d="M 23.1232,20.6431 19.5,17.0935 V 10.9989 L 23.1121,7.3706 C 23.8988,6.58044 25.248,7.13753 25.248,8.25251 V 19.7502 c 0,1.1075 -1.3337,1.6679 -2.1248,0.8929 z"
         fill="#212121"
         id="path271166"
         style="fill:#0080a0;fill-opacity:1" />
    </g>
  </g>
</svg>
