<?xml version="1.0" encoding="UTF-8" standalone="no"?>
<!-- Created with Inkscape (http://www.inkscape.org/) -->

<svg
   width="210mm"
   height="297mm"
   viewBox="0 0 210 297"
   version="1.1"
   id="svg120361"
   inkscape:version="1.1.2 (b8e25be833, 2022-02-05)"
   sodipodi:docname="2-GYVUNAI.svg"
   xmlns:inkscape="http://www.inkscape.org/namespaces/inkscape"
   xmlns:sodipodi="http://sodipodi.sourceforge.net/DTD/sodipodi-0.dtd"
   xmlns:xlink="http://www.w3.org/1999/xlink"
   xmlns="http://www.w3.org/2000/svg"
   xmlns:svg="http://www.w3.org/2000/svg">
  <sodipodi:namedview
     id="namedview120363"
     pagecolor="#ffffff"
     bordercolor="#666666"
     borderopacity="1.0"
     inkscape:pageshadow="2"
     inkscape:pageopacity="0.0"
     inkscape:pagecheckerboard="0"
     inkscape:document-units="mm"
     showgrid="false"
     inkscape:zoom="0.7198092"
     inkscape:cx="397.32751"
     inkscape:cy="561.95447"
     inkscape:window-width="1920"
     inkscape:window-height="1001"
     inkscape:window-x="-9"
     inkscape:window-y="-9"
     inkscape:window-maximized="1"
     inkscape:current-layer="layer1" />
  <defs
     id="defs120358">
    <rect
       x="95.858734"
       y="323.6969"
       width="611.27307"
       height="77.798393"
       id="rect6172" />
    <linearGradient
       inkscape:collect="always"
       xlink:href="#linearGradient29370"
       id="linearGradient29372-9"
       x1="18.378716"
       y1="115.96966"
       x2="188.93317"
       y2="115.96966"
       gradientUnits="userSpaceOnUse"
       gradientTransform="matrix(3.7795276,0,0,3.7795276,821.05096,-54.761594)" />
    <linearGradient
       inkscape:collect="always"
       id="linearGradient29370">
      <stop
         style="stop-color:#bbf998;stop-opacity:1;"
         offset="0"
         id="stop29366" />
      <stop
         style="stop-color:#bbf998;stop-opacity:0;"
         offset="1"
         id="stop29368" />
    </linearGradient>
    <inkscape:path-effect
       effect="spiro"
       id="path-effect91954"
       is_visible="true"
       lpeversion="1" />
    <rect
       x="95.858734"
       y="323.6969"
       width="611.27307"
       height="77.798393"
       id="rect6172-6" />
  </defs>
  <g
     inkscape:label="Sluoksnis 1"
     inkscape:groupmode="layer"
     id="layer1">
    <text
       xml:space="preserve"
       transform="matrix(0.26458333,0,0,0.26458333,-208.50373,-17.009376)"
       id="text6170"
       style="font-style:normal;font-weight:normal;font-size:74.6667px;line-height:1.25;font-family:sans-serif;white-space:pre;shape-inside:url(#rect6172-6);fill:#000000;fill-opacity:1;stroke:none"><tspan
         x="95.859375"
         y="469.61679"
         id="tspan121934"><tspan
           dx="0 29.666689 26.979185 23.750015 17.958351 33.083351 17.958359 19.187515"
           style="font-size:42.6667px"
           id="tspan121932">RELIGIJA</tspan></tspan></text>
    <g
       id="g109078"
       transform="translate(1.4703246,6.9837858)">
      <rect
         style="fill:#22241c;fill-opacity:1;stroke:#000000;stroke-width:0;stroke-dasharray:none"
         id="rect1217"
         width="16.540842"
         height="76.823013"
         x="98.788696"
         y="166.84857" />
      <path
         id="path1113-6"
         style="fill:#2a782a;fill-opacity:1;stroke:url(#linearGradient29372-9);stroke-width:0;stroke-dasharray:none;stroke-opacity:1"
         transform="matrix(0.26458333,0,0,0.26458333,-213.19307,-6.9839109)"
         d="M 1212.8223,61.242188 A 322.30761,322.30761 0 0 0 890.51367,383.54883 322.30761,322.30761 0 0 0 1212.8223,705.85742 322.30761,322.30761 0 0 0 1535.1289,383.54883 322.30761,322.30761 0 0 0 1212.8223,61.242188 Z" />
      <circle
         style="fill:#bae7ba;fill-opacity:0.370787;stroke:none;stroke-width:0;stroke-dasharray:none;stroke-opacity:1"
         id="path1113-4"
         cx="107.3317"
         cy="94.83416"
         r="67.47493" />
    </g>
    <path
       id="path1575"
       style="fill:#214a21;fill-opacity:1;stroke-width:0.240904"
       d="m 124.91155,55.040333 c -0.21199,0.0027 -0.43121,0.01314 -0.64803,0.03011 -8.6292,1.489634 -13.37503,10.615228 -14.06161,18.662651 -1.00457,7.303271 2.21391,16.686511 10.23123,18.324667 1.16357,0.221635 2.3705,0.120451 3.50757,-0.18791 9.65546,-3.237761 13.97489,-14.673028 12.58005,-24.143477 -0.40713,-6.118016 -5.01805,-12.77012 -11.60921,-12.686045 z m -36.586198,0.391471 c -5.367362,0.131726 -9.547059,5.574054 -10.397454,10.690149 -1.792568,10.135833 2.818108,22.729364 13.37745,25.935812 0.990112,0.214406 2.011554,0.236085 3.011308,0.08195 7.138004,-1.190073 10.161354,-9.190528 9.862634,-15.651353 -0.2144,-8.521282 -4.642228,-18.374529 -13.490664,-20.770327 -0.809441,-0.214622 -1.597192,-0.30501 -2.363274,-0.286195 z m 59.968418,28.788122 c -9.28206,0.556493 -15.64676,9.819282 -16.55498,18.467764 -1.2262,6.23702 2.09828,14.58197 9.21702,15.08063 9.92287,-0.12285 16.69471,-10.72748 16.97415,-19.852959 0.62877,-6.034662 -2.92698,-13.360578 -9.63619,-13.695435 z m -81.252358,2.057326 c -3.949394,-0.03369 -7.833496,2.331961 -9.124029,6.345436 -3.443253,10.739532 3.470959,24.341022 14.845523,26.598292 4.74727,0.81186 8.917808,-2.83304 10.095839,-7.21991 2.493358,-9.38324 -2.629478,-20.27696 -11.300366,-24.536154 -1.412423,-0.792577 -2.971319,-1.175618 -4.516967,-1.187664 z m 41.616298,19.255528 c -7.74267,0.0168 -15.605802,3.94601 -20.619031,9.79519 -5.415546,6.81759 -9.851077,14.75059 -11.58632,23.3533 -2.108159,6.19126 2.66995,13.31962 9.290497,13.36299 7.964307,0.21922 14.808424,-5.24931 22.726954,-5.65403 6.71883,-1.02385 12.73422,2.46927 18.77611,4.75786 5.14332,2.19946 12.25002,1.35629 14.87588,-4.17969 2.06454,-5.63959 -0.97567,-11.65739 -3.49312,-16.66579 -5.1361,-8.13295 -10.64077,-16.68025 -19.0628,-21.75852 -3.37507,-2.09106 -7.12597,-3.01854 -10.90817,-3.01131 z" />
  </g>
</svg>
