{
	"data": [
		{
			"title": "Pažink Kauną!",
			"image": "images/marsrutai/kaunas-min.jpeg",
            "center": {
                "lat": 54.90063503184538,
                "lng": 24.00002670038938
            },
            "places": [
                {
                    "lat": 54.87973551305623,
                    "lng": 23.88263689514655
                },
                {
                    "lat": 54.896994858086295,
                    "lng": 23.88700722965795
                },
                {
                    "lat": 54.897276425731555,
                    "lng": 23.919418004000107
                },
                {
                    "lat": 54.89472826571114,
                    "lng": 23.927214846123697
                },
                {
                    "lat": 54.89960495773339,
                    "lng": 23.945547224588555
                },
                {
                    "lat": 54.90340214293632,
                    "lng": 23.95020249391066
                },
                {
                    "lat": 54.9013397478257,
                    "lng": 23.978101929422316
                },
                {
                    "lat": 54.87716762702347,
                    "lng": 24.01659273224089
                },
                {
                    "lat": 54.89963363882288,
                    "lng": 24.043841606606655
                },
                {
                    "lat": 54.90164515461578,
                    "lng": 24.11755603824469
                }
            ]
		},
		{
			"title": "Pažink Vilnių!",
			"image": "images/marsrutai/vilnius-min.jpg",
            "center": {
                "lat": 54.68330435877038,
                "lng": 25.28663677559266
            },
            "places": [
                {
                    "lat": 54.68754043934406,
                    "lng": 25.211269661367496
                },
                {
                    "lat": 54.695327850359746,
                    "lng": 25.2335434280182
                },
                {
                    "lat": 54.683154978206524,
                    "lng": 25.238459436461547
                },
                {
                    "lat": 54.6795141993921,
                    "lng": 25.27685011554998
                },
                {
                    "lat": 54.67833332664486,
                    "lng": 25.28715500599633
                },
                {
                    "lat": 54.686479531439545,
                    "lng": 25.288723142520404
                },
                {
                    "lat": 54.686291864292556,
                    "lng": 25.299243174828163
                },
                {
                    "lat": 54.674051058596426,
                    "lng": 25.321187470302572
                },
                {
                    "lat": 54.68313540787017,
                    "lng": 25.328624710999264
                },
                {
                    "lat": 54.68444525971924,
                    "lng": 25.35629758651201
                }
            ]
		},
		{
			"title": "Pažink Klaipėdą!",
			"image": "images/marsrutai/klaipeda-min.jpeg",
            "center": {
                "lat": 55.71030993376045,
                "lng": 21.1299708065823
            },
            "places": [
                {
                    "lat": 55.813799643013425,
                    "lng": 21.067389452635027
                },
                {
                    "lat": 55.76689180768831,
                    "lng": 21.152273235370043
                },
                {
                    "lat": 55.75137849230627,
                    "lng": 21.129177325403102
                },
                {
                    "lat": 55.732209626589736,
                    "lng": 21.09088798182047
                },
                {
                    "lat": 55.71751140408812,
                    "lng": 21.136510707606682
                },
                {
                    "lat": 55.71245230811201,
                    "lng": 21.133043364011804
                },
                {
                    "lat": 55.70827868080257,
                    "lng": 21.150935417603915
                },
                {
                    "lat": 55.717986440900575,
                    "lng": 21.099488298537707
                },
                {
                    "lat": 55.6791753870265,
                    "lng": 21.092521456126047
                },
                {
                    "lat": 55.538688083708394,
                    "lng": 21.104110633531675
                }
            ]
		},
		{
			"title": "Pažink Šiaulius!",
			"image": "images/marsrutai/siauliai-min.jpg",
            "center": {
                "lat": 55.9287266431402,
                "lng": 23.320776037118588
            },
            "places": [
                {
                    "lat": 55.86321619497508,
                    "lng": 23.12051589712167
                },
                {
                    "lat": 55.856250387513455,
                    "lng": 23.325682151730202
                },
                {
                    "lat": 55.915776345635784,
                    "lng": 23.385500953062582
                },
                {
                    "lat": 55.93015765428525,
                    "lng": 23.426103537778204
                },
                {
                    "lat": 55.92641434754349,
                    "lng": 23.33773197492414
                },
                {
                    "lat": 55.9280551073485,
                    "lng": 23.34497915381718
                },
                {
                    "lat": 55.93282610748541,
                    "lng": 23.271793989309842
                },
                {
                    "lat": 55.971376859833086,
                    "lng": 23.26760785538606
                },
                {
                    "lat": 55.96430969324117,
                    "lng": 23.347727153075805
                },
                {
                    "lat": 56.01614877403771,
                    "lng": 23.41080670089721
                }
            ]
		},
		{
			"title": "Pažink Panevėžį!",
			"image": "images/marsrutai/panevezys-min.jpg",
            "center": {
                "lat": 55.728203355454376,
                "lng": 24.3670285579596
            },
            "places": [
                {
                    "lat": 55.714942123952575,
                    "lng": 24.369821962580282
                },
                {
                    "lat": 55.72288039766354,
                    "lng": 24.357676575988393
                },
                {
                    "lat": 55.725927020372616,
                    "lng": 24.355839307608395
                },
                {
                    "lat": 55.73753932235925,
                    "lng": 24.33598191046952
                },
                {
                    "lat": 55.73025353743204,
                    "lng": 24.35765634742432
                },
                {
                    "lat": 55.73076166296034,
                    "lng": 24.36304003519358
                },
                {
                    "lat": 55.73249965738979,
                    "lng": 24.37098296567679
                },
                {
                    "lat": 55.73375615479644,
                    "lng": 24.37626155305357
                },
                {
                    "lat": 55.7309531435039,
                    "lng": 24.39505847383746
                },
                {
                    "lat": 55.72783576527691,
                    "lng": 24.407975992515475
                }
            ]
		}
    ]
}